%YAML 1.1
%TAG !u! tag:unity3d.com,2011:
--- !u!114 &11400000
MonoBehaviour:
  m_ObjectHideFlags: 0
  m_CorrespondingSourceObject: {fileID: 0}
  m_PrefabInternal: {fileID: 0}
  m_GameObject: {fileID: 0}
  m_Enabled: 1
  m_EditorHideFlags: 0
  m_Script: {fileID: 11500000, guid: 8a3bdb2cd68f901469e7cc149151eb49, type: 3}
  m_Name: CustomMotionVectorDebugProfile
  m_EditorClassIdentifier: 
  debugViews:
    m_Enabled: 1
    m_Settings:
      mode: 0
      depth:
        scale: 1
      motionVectors:
        sourceOpacity: 1
        motionImageOpacity: 0
        motionImageAmplitude: 16
        motionVectorsOpacity: 1
        motionVectorsResolution: 48
        motionVectorsAmplitude: 64
  fog:
    m_Enabled: 1
    m_Settings:
      excludeSkybox: 1
  antialiasing:
    m_Enabled: 1
    m_Settings:
      method: 0
      fxaaSettings:
        preset: 2
      taaSettings:
        jitterSpread: 0.75
        sharpen: 0.3
        stationaryBlending: 0.95
        motionBlending: 0.85
  ambientOcclusion:
    m_Enabled: 1
    m_Settings:
      intensity: 1.53
      radius: 0.2
      sampleCount: 10
      downsampling: 0
      forceForwardCompatibility: 0
      ambientOnly: 0
      highPrecision: 0
  screenSpaceReflection:
    m_Enabled: 1
    m_Settings:
      reflection:
        blendType: 1
        reflectionQuality: 0
        maxDistance: 250
        iterationCount: 64
        stepSize: 16
        widthModifier: 0.5
        reflectionBlur: 0.1
        reflectBackfaces: 0
      intensity:
        reflectionMultiplier: 1.09
        fadeDistance: 100
        fresnelFade: 1
        fresnelFadePower: 1
      screenEdgeMask:
        intensity: 0.03
  depthOfField:
    m_Enabled: 0
    m_Settings:
      focusDistance: 10
      aperture: 5.6
      focalLength: 50
      useCameraFov: 0
      kernelSize: 1
  motionBlur:
    m_Enabled: 0
    m_Settings:
      shutterAngle: 270
      sampleCount: 10
      frameBlending: 0
  eyeAdaptation:
    m_Enabled: 0
    m_Settings:
      lowPercent: 65
      highPercent: 95
      minLuminance: 0.03
      maxLuminance: 2
      keyValue: 0.25
      dynamicKeyValue: 1
      adaptationType: 0
      speedUp: 2
      speedDown: 1
      logMin: -8
      logMax: 4
  bloom:
    m_Enabled: 1
    m_Settings:
      bloom:
        intensity: 0.00008
        threshold: 1.1
        softKnee: 0.432
        radius: 5.15
        antiFlicker: 0
      lensDirt:
        texture: {fileID: 0}
        intensity: 3
  colorGrading:
    m_Enabled: 1
    m_Settings:
      tonemapping:
        tonemapper: 2
        neutralBlackIn: 0.024
        neutralWhiteIn: 10
        neutralBlackOut: -0.018
        neutralWhiteOut: 13.9
        neutralWhiteLevel: 7.7
        neutralWhiteClip: 10
      basic:
        postExposure: -0.11
        temperature: 5
        tint: 0
        hueShift: 0
        saturation: 1.58
        contrast: 1.31
      channelMixer:
        red: {x: 1.23, y: 0.56, z: -0.05}
        green: {x: 0.12, y: 0.94, z: 0}
        blue: {x: 0, y: -0.23, z: 1.8}
        currentEditingChannel: 1
      colorWheels:
        mode: 1
        log:
          slope: {r: 0.28342837, g: 0.5007103, b: 1, a: -0.14760147}
          power: {r: 0.35846406, g: 0.74378645, b: 1, a: -0.11808118}
          offset: {r: 1, g: 0.8980714, b: 0.10977936, a: 0.28536257}
        linear:
          lift: {r: 0, g: 0, b: 0, a: 0}
          gamma: {r: 0, g: 0, b: 0, a: 0}
          gain: {r: 0, g: 0, b: 0, a: 0}
      curves:
        master:
          curve:
            serializedVersion: 2
            m_Curve:
            - serializedVersion: 3
              time: 0
              value: 0
              inSlope: 1
              outSlope: 1
              tangentMode: 0
              weightedMode: 0
              inWeight: 0.33333334
              outWeight: 0.33333334
            - serializedVersion: 3
              time: 1
              value: 1
              inSlope: 1
              outSlope: 1
              tangentMode: 0
              weightedMode: 0
              inWeight: 0.33333334
              outWeight: 0.33333334
            m_PreInfinity: 2
            m_PostInfinity: 2
            m_RotationOrder: 4
          m_Loop: 0
          m_ZeroValue: 0
          m_Range: 1
        red:
          curve:
            serializedVersion: 2
            m_Curve:
            - serializedVersion: 3
              time: 0
              value: 0
              inSlope: 1
              outSlope: 1
              tangentMode: 0
              weightedMode: 0
              inWeight: 0.33333334
              outWeight: 0.33333334
            - serializedVersion: 3
              time: 1
              value: 1
              inSlope: 1
              outSlope: 1
              tangentMode: 0
              weightedMode: 0
              inWeight: 0.33333334
              outWeight: 0.33333334
            m_PreInfinity: 2
            m_PostInfinity: 2
            m_RotationOrder: 4
          m_Loop: 0
          m_ZeroValue: 0
          m_Range: 1
        green:
          curve:
            serializedVersion: 2
            m_Curve:
            - serializedVersion: 3
              time: 0
              value: 0
              inSlope: 1
              outSlope: 1
              tangentMode: 0
              weightedMode: 0
              inWeight: 0.33333334
              outWeight: 0.33333334
            - serializedVersion: 3
              time: 1
              value: 1
              inSlope: 1
              outSlope: 1
              tangentMode: 0
              weightedMode: 0
              inWeight: 0.33333334
              outWeight: 0.33333334
            m_PreInfinity: 2
            m_PostInfinity: 2
            m_RotationOrder: 4
          m_Loop: 0
          m_ZeroValue: 0
          m_Range: 1
        blue:
          curve:
            serializedVersion: 2
            m_Curve:
            - serializedVersion: 3
              time: 0
              value: 0
              inSlope: 1
              outSlope: 1
              tangentMode: 0
              weightedMode: 0
              inWeight: 0.33333334
              outWeight: 0.33333334
            - serializedVersion: 3
              time: 1
              value: 1
              inSlope: 1
              outSlope: 1
              tangentMode: 0
              weightedMode: 0
              inWeight: 0.33333334
              outWeight: 0.33333334
            m_PreInfinity: 2
            m_PostInfinity: 2
            m_RotationOrder: 4
          m_Loop: 0
          m_ZeroValue: 0
          m_Range: 1
        hueVShue:
          curve:
            serializedVersion: 2
            m_Curve: []
            m_PreInfinity: 2
            m_PostInfinity: 2
            m_RotationOrder: 4
          m_Loop: 1
          m_ZeroValue: 0.5
          m_Range: 1
        hueVSsat:
          curve:
            serializedVersion: 2
            m_Curve: []
            m_PreInfinity: 2
            m_PostInfinity: 2
            m_RotationOrder: 4
          m_Loop: 1
          m_ZeroValue: 0.5
          m_Range: 1
        satVSsat:
          curve:
            serializedVersion: 2
            m_Curve: []
            m_PreInfinity: 2
            m_PostInfinity: 2
            m_RotationOrder: 4
          m_Loop: 0
          m_ZeroValue: 0.5
          m_Range: 1
        lumVSsat:
          curve:
            serializedVersion: 2
            m_Curve: []
            m_PreInfinity: 2
            m_PostInfinity: 2
            m_RotationOrder: 4
          m_Loop: 0
          m_ZeroValue: 0.5
          m_Range: 1
        e_CurrentEditingCurve: 0
        e_CurveY: 1
        e_CurveR: 0
        e_CurveG: 0
        e_CurveB: 0
  userLut:
    m_Enabled: 0
    m_Settings:
      lut: {fileID: 2800000, guid: 4f98e9c96c8a48541b5eb704e92d99b8, type: 3}
      contribution: 1
  chromaticAberration:
    m_Enabled: 0
    m_Settings:
      spectralTexture: {fileID: 0}
      intensity: 0.1
  grain:
    m_Enabled: 0
    m_Settings:
      colored: 1
      intensity: 0.5
      size: 1
      luminanceContribution: 0.8
  vignette:
    m_Enabled: 1
    m_Settings:
      mode: 0
      color: {r: 0, g: 0, b: 0, a: 1}
      center: {x: 0.5, y: 0.5}
      intensity: 0.403
      smoothness: 0.288
      roundness: 1
      mask: {fileID: 0}
      opacity: 1
      rounded: 0
  dithering:
    m_Enabled: 0
  monitors:
    currentMonitorID: 0
    refreshOnPlay: 0
    histogramMode: 3
    waveformExposure: 0.12
    waveformY: 0
    waveformR: 1
    waveformG: 1
    waveformB: 1
    paradeExposure: 0.12
    vectorscopeExposure: 0.12
    vectorscopeShowBackground: 1
